<?xml version="1.0" encoding="utf-8"?>
<!-- Generator: Adobe Illustrator 16.0.0, SVG Export Plug-In . SVG Version: 6.00 Build 0)  -->
<!DOCTYPE svg PUBLIC "-//W3C//DTD SVG 1.1//EN" "http://www.w3.org/Graphics/SVG/1.1/DTD/svg11.dtd">
<svg version="1.1" xmlns="http://www.w3.org/2000/svg" xmlns:xlink="http://www.w3.org/1999/xlink" x="0px" y="0px"
	 width="235px" height="81px" viewBox="0 0 235 81" enable-background="new 0 0 235 81" xml:space="preserve">
<g>
	<g>
		<path fill="#ded4b9" d="M76.078,49.249c0.023-0.008,0.061-0.024,0.062-0.02C76.138,49.224,76.113,49.233,76.078,49.249z
			 M234.13,46.98c0-0.615-0.185-1.293-0.554-1.97c-1.292-2.401-3.57-4.247-6.709-5.479c-1.392-0.526-2.815-0.927-4.278-1.188
			c1.952-0.632,3.432-1.548,4.491-2.758c0.615-0.677,0.985-1.354,1.047-1.97c0.062-0.677,0-1.477-0.246-2.462l-0.739-1.785
			l-0.554-1.785v-0.431l0.062-0.431c0.738-1.169,1.416-2.031,1.97-2.585c0.924-0.677,1.17-1.169,0.861-1.477
			c-0.184-0.185-0.431-0.308-0.738-0.308c-0.677,0-1.601,0.492-2.709,1.477c-2.03,2.216-4,4.432-5.847,6.586
			c-0.923,1.108-1.416,1.97-1.416,2.647c0,0.431,0.431,1.292,1.293,2.523c0.062,0,0.062-0.062,0-0.123
			c-0.185-0.8,0.616-2.216,2.339-4.186l2.585-2.955l0.616,1.785l0.8,1.723l0.185,0.739l0.123,0.677v0.616
			c0,1.416-1.293,2.585-3.816,3.508c-0.905,0.311-1.757,0.527-2.575,0.686c-0.721-0.055-1.451-0.078-2.192-0.063
			c-0.797,0-1.618,0.026-2.45,0.067c-0.466-0.123-0.91-0.291-1.338-0.505l-0.308-0.246c-0.185-0.246-0.369-0.492-0.432-0.677
			c-0.123-0.431-0.061-0.8,0.247-1.169c0.677-0.923,1.662-1.539,2.954-1.908v-0.123c-1.107,0.369-1.908,0.739-2.462,1.046
			l-0.492,0.37c-0.616,0.615-0.923,1.169-0.923,1.724c0,0.554,0.318,1.105,0.96,1.614c-0.713,0.063-1.431,0.138-2.16,0.239
			c-0.278,0.038-0.57,0.083-0.861,0.127c-1.54-2.318-2.226-4.383-2.043-6.167c0.061-0.677,0.431-1.231,0.984-1.539
			c0.924-0.246,1.724-0.37,2.277-0.431c1.785-0.062,3.755-0.738,5.848-1.908c2.462-1.416,3.693-2.893,3.693-4.555
			c0-1.108-0.924-1.662-2.832-1.662c-1.416,0-3.139,0.554-5.109,1.601l4.74-6.34c4.186-5.601,6.832-8.433,7.94-8.433
			c0.185,0,0.369,0.062,0.431,0.247c0.062-0.062,0-0.185-0.062-0.247c-0.185-0.492-0.861-0.615-2.03-0.308
			c-2.34,0.616-4.679,2.462-7.018,5.602L203.772,33l-1.661,2.093c-1.479,1.724-3.324,2.77-5.541,3.201c-0.061,0,0,0,0.123,0.062
			c0.801,0.431,1.479,0.616,1.971,0.616c2.154,0,4.493-1.478,7.017-4.494c0.677-0.8,1.478-1.846,2.4-3.078
			c-0.554,0.923-0.739,1.908-0.554,2.893c0.215,1.479,0.753,2.997,1.589,4.547c-2.628,0.474-5.685,1.183-9.148,2.231
			c-6.094,1.785-9.91,2.77-11.572,3.2c1.785-0.984,2.955-2.092,3.447-3.385c0.123-0.247,0.123-0.431,0.063-0.493
			c0,0.062-0.246,0.37-0.678,1.046c-0.861,1.169-2.4,2.031-4.617,2.647c-1.785,0.492-3.631,0.738-5.416,0.738
			c-5.602,0-8.74-1.847-9.418-5.602c-0.246-1.354,0.123-3.201,1.17-5.602c0.431-1.107,0.738-1.847,0.862-2.277
			c0.246-0.862,0.308-1.723,0.185-2.585c-0.185-1.293-0.862-2.524-2.094-3.755c0.186,0.062,0.492,0.062,1.047,0.062
			c1.17,0.062,2.34-0.062,3.57-0.369c3.754-0.862,7.14-2.832,10.032-5.848c3.447-3.631,5.171-6.709,5.171-9.233
			c0-1.847-0.924-3.324-2.77-4.432c-1.416-0.862-3.201-1.416-5.232-1.662c-2.462-0.308-5.17-0.308-8.063,0l-8.063,0.985
			c-5.725,0.677-10.525,1.046-14.465,1.046c-8.063,0-13.85-1.539-17.234-4.555c2.831,4.739,7.879,7.14,15.143,7.14
			c3.016,0,7.324-0.554,13.172-1.601c5.785-1.046,10.095-1.6,12.986-1.662c4.803-0.062,8.311,0.923,10.527,2.832
			c1.107,1.046,1.661,2.339,1.661,3.878c0,2.523-1.601,5.17-4.862,8.063c-3.017,2.646-5.848,4.186-8.494,4.616
			c-1.416,0.185-2.709,0.124-3.939-0.185c2.092-0.062,4.124-0.8,6.154-2.093c-1.292,0.677-2.585,1.108-3.877,1.292
			c-1.971,0.308-3.756,0.062-5.416-0.738c-0.186-0.185-0.432-0.247-0.616-0.431c1.169-1.416,2.462-2.955,4.001-4.616l4.616-5.109
			c1.416-1.539,2.771-2.523,4.063-3.078c1.169-0.554,2.831-0.923,4.925-1.108c-0.678-0.37-1.479-0.616-2.278-0.677
			c-4.493-0.369-10.341,3.693-17.419,12.126c-0.555-1.046-0.801-2.154-0.801-3.447c0-1.724,0.554-3.386,1.601-4.924
			c1.046-1.601,2.462-2.4,4.186-2.462c1.539-0.062,3.017,0.431,4.37,1.478c-1.047-1.416-2.523-2.154-4.555-2.216
			c-0.865-0.015-1.657,0.092-2.382,0.316c0.002-0.001,0.004-0.003,0.006-0.004c-0.004,0.002-0.009,0.004-0.013,0.006
			c-1.146,0.356-2.116,1.018-2.922,1.974c-1.742,1.589-3.244,3.755-3.244,5.648c0,2.155,0.8,3.939,2.339,5.417l-1.969,2.523
			l-1.539,2.154l0.246-1.908c0.061-0.862-0.124-1.662-0.432-2.4c-0.123,1.97-0.492,3.632-1.17,4.924
			c-0.43,0.8-1.354,2.277-2.77,4.309c-3.942,4.154-7.796,6.55-11.484,7.162c-0.373-0.389-0.771-0.755-1.218-1.068
			c-0.752-0.532-1.576-0.9-2.427-1.155c-0.536-1.297-0.752-2.498-0.64-3.591c0.062-0.677,0.431-1.231,0.984-1.539
			c0.924-0.246,1.725-0.37,2.277-0.431c1.785-0.062,3.755-0.738,5.848-1.908c2.463-1.416,3.693-2.893,3.693-4.555
			c0-1.108-0.924-1.662-2.831-1.662c-1.416,0-3.14,0.554-5.109,1.601l4.739-6.34c4.186-5.601,6.832-8.433,7.941-8.433
			c0.184,0,0.369,0.062,0.43,0.247c0.063-0.062,0-0.185-0.061-0.247c-0.186-0.492-0.862-0.615-2.031-0.308
			c-1.007,0.265-2.014,0.772-3.02,1.498c-0.667-0.214-1.403-0.321-2.201-0.321c-2.893,0-5.97,1.169-9.232,3.57
			c-2.896,2.137-5.089,4.681-6.594,7.624c-0.902,0.444-1.972,0.933-3.247,1.479c0.892,0.02,1.776-0.067,2.657-0.24
			c-0.117,0.271-0.215,0.552-0.321,0.83c-0.568,0.217-1.218,0.469-1.966,0.765c-2.094,0.8-3.263,1.539-3.509,2.093
			c-0.246,0.554,0.062,0.985,0.984,1.293h0.062c-0.431-0.308-0.615-0.616-0.615-0.923c0-0.554,0.738-1.046,2.154-1.478
			c0.861-0.308,1.416-0.431,1.601-0.492c-1.354,1.169-2.462,2.4-3.386,3.631l-1.477,2.093l-5.479,7.448
			c-0.185,0.185-0.246,0.369-0.246,0.554c0,0.431,0.185,0.616,0.615,0.616c0.185,0,0.309-0.062,0.492-0.185l4.063-1.662
			c2.816-1.169,4.941-2.661,6.341-4.512c0.181,0.509,0.394,0.995,0.647,1.454l-0.914,1.15c-1.479,1.724-3.324,2.77-5.54,3.201
			c-0.062,0,0,0,0.123,0.062c0.8,0.431,1.478,0.616,1.97,0.616c0.061,0,0.123-0.013,0.184-0.016
			c-0.595,0.624-1.116,1.303-1.53,2.027c-1.314,2.34-1.667,4.84-1.432,7.155c-0.134,0.102-0.267,0.205-0.398,0.312
			c-2,1.062-4.105,2.631-5.961,4.923c-1.713,2.104-3.127,4.818-3.818,7.954c-0.104,0.482-0.186,0.979-0.256,1.483
			c-0.07-0.503-0.151-1.001-0.255-1.483c-0.692-3.136-2.105-5.851-3.819-7.954c-1.855-2.292-3.96-3.861-5.96-4.923
			c-0.132-0.106-0.265-0.21-0.398-0.312c0.235-2.315-0.118-4.815-1.432-7.155c-0.609-1.066-1.436-2.043-2.421-2.868
			c1.293-0.51,2.222-0.882,2.731-1.113c3.262-1.354,5.602-3.139,6.894-5.417c0.431-0.8,0.431-1.292-0.062-1.6
			c-0.185-0.123-0.616-0.123-1.292,0v0.062c0.923,0.062,1.354,0.369,1.169,0.8c-0.185,0.492-0.493,1.046-1.046,1.6
			c-1.601,1.785-3.878,3.078-6.894,3.939c0.985-1.169,1.785-2.216,2.462-3.139l2.831-3.816c3.262-4.37,5.417-6.586,6.463-6.586
			c0.185,0,0.37,0.062,0.431,0.246c0.062-0.308-0.062-0.492-0.431-0.677c-0.185-0.062-0.369-0.062-0.615-0.062
			c-1.539,0-3.262,0.923-5.232,2.831c0.185-1.292-0.247-2.154-1.354-2.523c-0.8-0.308-1.846-0.246-3.077,0.062
			c-2.031,0.554-4.001,1.662-5.909,3.447c-3.139,2.893-4.74,5.971-4.924,9.171c-0.005,0.094,0.001,0.182,0,0.274
			c-1.51,0.133-3.002,0.604-4.293,1.517c-0.565,0.396-1.066,0.865-1.511,1.377c-0.394-0.085-0.792-0.159-1.191-0.224l5.847-7.5
			c2.031-2.647,3.508-4.432,4.432-5.417c1.662-1.785,2.77-2.646,3.324-2.646c0.185,0,0.308,0.062,0.431,0.246
			c0.123-0.492-0.247-0.738-1.046-0.738c-0.247,0-0.493,0.061-0.8,0.123c-0.062,0-0.123,0-0.185,0.062h-0.062l-1.231,0.308
			c-4.247,1.046-7.202,2.462-8.925,4.186c-0.308,0.308-0.431,0.615-0.492,0.985c-0.123,0.554,0.308,0.862,1.231,0.923
			c-0.492-0.185-0.8-0.369-0.861-0.493c-0.062-0.185-0.062-0.431,0.123-0.615c0.308-0.554,0.8-0.923,1.539-1.169
			c0.062-0.062,0.8-0.308,2.093-0.739c0.616-0.123,1.231-0.246,1.785-0.431c-0.739,0.739-1.416,1.478-2.031,2.278l-4.986,6.34
			c-1.458,1.869-2.441,3.126-2.93,3.78c-0.538-0.952-1.32-1.791-2.365-2.339c-1.278-0.692-2.735-0.962-4.144-0.609
			c-0.371,0.1-0.719,0.249-1.043,0.432c-0.335-1.021-0.463-1.979-0.373-2.865c0.062-0.677,0.431-1.231,0.985-1.539
			c0.923-0.246,1.724-0.37,2.278-0.431c1.785-0.062,3.754-0.738,5.847-1.908c2.462-1.416,3.693-2.893,3.693-4.555
			c0-1.108-0.923-1.662-2.832-1.662c-1.416,0-3.139,0.554-5.109,1.601l4.74-6.34c4.186-5.601,6.832-8.433,7.94-8.433
			c0.185,0,0.37,0.062,0.431,0.247c0.062-0.062,0-0.185-0.062-0.247c-0.185-0.492-0.862-0.615-2.031-0.308
			c-2.339,0.616-4.678,2.462-7.017,5.602L73.197,33l-1.662,2.093c-1.478,1.724-3.324,2.77-5.54,3.201c-0.062,0,0,0,0.124,0.062
			c0.8,0.431,1.477,0.616,1.97,0.616c2.154,0,4.493-1.478,7.017-4.494c0.677-0.8,1.478-1.846,2.401-3.078
			c-0.554,0.923-0.739,1.908-0.554,2.893c0.092,0.634,0.264,1.278,0.471,1.926c-0.312,0.353-0.568,0.745-0.75,1.159
			c-0.198,0.438-0.318,0.907-0.359,1.377c-2.738,0.472-5.956,1.2-9.64,2.315c-1.815,0.532-3.403,0.984-4.817,1.38l5.309-7.05
			c3.139-4.124,5.971-7.509,8.371-10.033c1.662-1.785,2.77-2.646,3.324-2.646c0.184,0,0.308,0.062,0.369,0.246
			c0.185-0.492-0.185-0.738-1.169-0.738c-2.093,0-7.817,5.478-7.94,5.786l-2.216,2.77c-2.154,2.031-4.186,3.508-6.217,4.37
			c-0.554,0.246-1.785,0.677-3.57,1.231l4.247-5.54c0.554-0.739,0.862-1.231,1.047-1.416c3.262-4.37,5.417-6.586,6.463-6.586
			c0.185,0,0.308,0.062,0.431,0.246c0.062-0.308-0.062-0.492-0.431-0.677c-0.616-0.185-1.539,0-2.708,0.554
			c-2.154,1.046-4.063,2.77-5.848,5.17l-1.477,2.093l-5.479,7.448c-0.185,0.185-0.246,0.369-0.246,0.554
			c0,0.431,0.185,0.616,0.616,0.616c0.185,0,0.308-0.062,0.492-0.185c5.602-2.4,9.171-4.124,10.587-5.17l-0.431,0.493
			c-1.662,2.031-2.708,3.447-3.262,4.247l-5.492,5.642c-0.622,0.163-1.137,0.297-1.523,0.397c1.785-0.984,2.955-2.092,3.447-3.385
			c0.123-0.247,0.123-0.431,0.062-0.493c0,0.062-0.246,0.37-0.677,1.046c-0.861,1.169-2.4,2.031-4.616,2.647
			c-1.785,0.492-3.631,0.738-5.417,0.738c-5.601,0-8.741-1.847-9.417-5.602c-0.247-1.354,0.123-3.201,1.169-5.602
			c0.431-1.107,0.739-1.847,0.862-2.277c0.246-0.862,0.308-1.723,0.185-2.585c-0.185-1.293-0.862-2.524-2.093-3.755
			c0.185,0.062,0.492,0.062,1.046,0.062c1.169,0.062,2.339-0.062,3.57-0.369c3.755-0.862,7.14-2.832,10.033-5.848
			c3.447-3.631,5.17-6.709,5.17-9.233c0-1.847-0.923-3.324-2.77-4.432c-1.416-0.862-3.2-1.416-5.232-1.662
			c-2.462-0.308-5.17-0.308-8.063,0l-8.063,0.985c-5.725,0.677-10.526,1.046-14.465,1.046C11.77,5.555,5.983,4.016,2.598,1
			c2.831,4.739,7.879,7.14,15.142,7.14c3.016,0,7.325-0.554,13.172-1.601c5.786-1.046,10.095-1.6,12.988-1.662
			c4.801-0.062,8.31,0.923,10.525,2.832c1.108,1.046,1.662,2.339,1.662,3.878c0,2.523-1.601,5.17-4.863,8.063
			c-3.016,2.646-5.847,4.186-8.494,4.616c-1.416,0.185-2.708,0.124-3.939-0.185c2.093-0.062,4.124-0.8,6.155-2.093
			c-1.292,0.677-2.585,1.108-3.878,1.292c-1.97,0.308-3.755,0.062-5.417-0.738c-0.185-0.185-0.431-0.247-0.616-0.431
			c1.169-1.416,2.462-2.955,4.001-4.616l4.617-5.109c1.416-1.539,2.77-2.523,4.063-3.078c1.169-0.554,2.832-0.923,4.924-1.108
			c-0.677-0.37-1.477-0.616-2.277-0.677C45.87,7.155,40.022,11.218,32.943,19.65c-0.554-1.046-0.8-2.154-0.8-3.447
			c0-1.724,0.554-3.386,1.6-4.924c1.046-1.601,2.462-2.4,4.186-2.462c1.539-0.062,3.016,0.431,4.371,1.478
			c-1.047-1.416-2.524-2.154-4.555-2.216c-2.126-0.037-3.355,0.605-3.656,0.858c-2.371,1.286-4.9,4.36-4.9,7.082
			c0,2.155,0.8,3.939,2.339,5.417l-1.97,2.523l-1.539,2.154l0.247-1.908c0.062-0.862-0.123-1.662-0.431-2.4
			c-0.124,1.97-0.493,3.632-1.17,4.924c-0.431,0.8-1.354,2.277-2.77,4.309c-4.617,4.863-9.11,7.325-13.357,7.325
			c-0.677,0-1.539-0.123-2.585-0.308c-2.154-0.431-3.816-1.662-4.986-3.755c-1.169-1.847-1.6-3.939-1.416-6.217
			c0.493-5.17,3.385-9.664,8.679-13.542c3.509-2.647,6.586-3.939,9.233-3.939c1.231,0,2.277,0.308,3.078,0.862l0.246-0.185
			c-1.046-0.862-2.4-1.292-4-1.292c-2.893,0-5.971,1.169-9.233,3.57c-3.755,2.77-6.34,6.217-7.756,10.341
			c-0.677,1.908-0.923,3.816-0.738,5.725c0.308,3.447,1.846,6.032,4.555,7.817c-0.062-0.062-0.123-0.062-0.185-0.062
			c2.031,1.046,4.063,1.539,6.156,1.539c2.339,0,4.739-0.616,7.263-1.785c-2.647,2.277-4.986,3.324-7.14,3.078
			c1.231,0.431,2.462,0.677,3.631,0.739c0-0.062,0-0.062-0.062-0.062c3.201,0.308,6.894-2.093,11.018-7.202
			c1.908-2.277,3.693-4.678,5.601-7.324l2.093-2.832c0.8,0.492,1.724,0.862,2.647,1.108l0.185,0.185h0.062
			c0.739,0.923,1.046,1.785,0.985,2.646c-0.062,0.801-0.615,2.524-1.785,5.232c-0.923,2.154-1.231,4.124-0.984,6.032
			c0.246,1.97,1.354,3.631,3.324,4.924c1.662,1.047,3.631,1.724,5.848,2.031c2.565,0.299,6.415,0.013,11.469-0.902l-0.672,0.69
			c-1.383,0.33-2.769,0.712-4.151,1.178c-3.494,1.236-6.87,2.668-10.523,3.916c-2.13,0.742-4.204,1.518-6.259,2.176
			c-3.162-1.937-5.297-4.24-6.511-6.092c-1.469-2.191-1.936-3.609-1.973-3.588c0.039-0.02,0.418,1.42,1.793,3.705
			c1.083,1.842,3.022,4.164,5.955,6.205c-1.208,0.37-2.409,0.695-3.611,0.941c-3.483,0.756-6.943,1.022-10.182,0.65
			c-3.199-0.289-6.37-1.332-7.933-3.631c-0.745-1.115-0.942-2.561-0.667-3.763c0.297-1.221,1.178-2.212,2.226-2.71
			c1.046-0.489,2.284-0.553,3.194-0.07c0.93,0.475,1.495,1.436,1.56,2.361c0.272,1.99-2.238,3.01-3.152,1.926
			c-0.465-0.465-0.562-1.178-0.298-1.615c0.258-0.459,0.773-0.592,1.115-0.522c0.632,0.203,0.619,0.689,0.616,0.794
			c0.008-0.105,0.057-0.596-0.603-0.852c-0.36-0.092-0.919,0.018-1.237,0.514c-0.318,0.484-0.253,1.27,0.251,1.83
			c1.013,1.301,3.926,0.268,3.741-2.1c-0.03-1.064-0.636-2.215-1.724-2.825c-1.095-0.621-2.509-0.589-3.747-0.065
			c-1.24,0.538-2.325,1.669-2.728,3.125c-0.375,1.455-0.191,3.081,0.661,4.473c1.792,2.774,5.284,3.9,8.584,4.279
			c1.862,0.25,3.795,0.293,5.759,0.157c-1.675,0.794-3.164,1.681-4.432,2.608c-0.18,0.129-0.351,0.262-0.518,0.396
			c-4.363-0.461-7.772-1.663-10.082-2.6c-2.448-1.012-3.725-1.734-3.732-1.72c0.007-0.015,1.281,0.716,3.724,1.739
			c2.294,0.943,5.679,2.155,10.018,2.639c-1.557,1.275-2.577,2.746-3.07,4.057c-0.93,2.093-1.22,4.585-0.639,6.988
			c0.652,2.736,2.436,5.459,5.242,6.716c2.77,1.259,6.09,0.913,8.423-0.742c2.437-1.576,3.505-4.659,2.856-7.21
			c-0.315-1.273-0.957-2.439-1.883-3.286c-0.935-0.833-2.126-1.294-3.294-1.353c-2.335-0.119-4.544,1.377-4.982,3.364
			c-0.493,1.944,0.508,3.908,1.968,4.53c1.472,0.651,2.99,0.084,3.68-0.752c0.714-0.875,0.659-1.842,0.481-2.367
			c-0.168-0.555-0.421-0.765-0.392-0.778c-0.029,0.013,0.22,0.229,0.377,0.782c0.169,0.525,0.204,1.482-0.507,2.328
			c-0.687,0.811-2.181,1.338-3.594,0.689c-1.4-0.617-2.342-2.531-1.847-4.39c0.437-1.895,2.57-3.304,4.805-3.172
			c1.115,0.065,2.247,0.515,3.129,1.313c0.872,0.806,1.487,1.938,1.779,3.155c0.602,2.449-0.428,5.379-2.759,6.875
			c-2.25,1.584-5.438,1.907-8.097,0.7c-2.688-1.2-4.42-3.821-5.065-6.479c-0.382-1.561-0.386-3.162-0.081-4.664
			c0.002-0.104,0.01-0.129,0.119-0.515c0.229-0.896,0.568-1.748,1.006-2.525c0.568-0.993,1.255-1.851,2.022-2.583
			c0.25-0.217,0.517-0.428,0.798-0.634c0.115,0.011,0.227,0.024,0.343,0.034c4.135,0.396,9.006-0.14,14.165-1.514
			c1.021,0.506,1.866,1.078,2.517,1.605c1.683,1.385,2.328,2.439,2.35,2.414c-0.023,0.025-0.647-1.04-2.316-2.455
			c-0.626-0.522-1.436-1.092-2.415-1.602c0.696-0.188,1.395-0.389,2.099-0.605c0.735-0.218,1.477-0.449,2.226-0.689
			c1.793,0.663,3.75,1.203,5.833,1.572c0.113,0.107,0.261,0.191,0.451,0.246c0.282,0.081,0.655,0.074,1.129-0.004
			c1.553,0.202,3.167,0.309,4.83,0.295c6.117,0.014,12.702-1.674,19.102-4.382c-1.347,1.665-2.02,2.758-2.02,3.291
			c0,0.431,0.185,0.677,0.616,0.8c0.8,0.185,1.785,0,2.955-0.554c0.923-0.432,1.785-1.047,2.462-1.724
			c1.785-1.785,2.893-2.954,3.262-3.447l0.653-0.882c0.346,0.448,0.679,0.916,0.982,1.424c0.747,1.268,1.351,2.707,1.684,4.266
			c0.34,1.568,0.488,3.231,0.086,4.797c-0.802,3.2-3.601,5.466-6.419,5.898c-2.844,0.67-5.248-1.518-5.519-3.66
			c-0.231-1.051,0.182-2.021,0.834-2.577c0.641-0.558,1.47-0.752,2.046-0.609c1.075,0.362,1.161,1.21,1.186,1.369
			c-0.005-0.163,0.032-1.034-1.122-1.573c-0.661-0.227-1.569-0.104-2.38,0.473c-0.81,0.555-1.429,1.744-1.243,3.01
			c0.116,1.229,0.729,2.574,1.885,3.533c1.115,0.986,2.862,1.449,4.481,1.18c3.252-0.349,6.638-2.926,7.578-6.703
			c0.475-1.888,0.267-3.765-0.135-5.434c-0.405-1.697-1.116-3.246-1.982-4.582c-0.269-0.411-0.555-0.799-0.851-1.168
			c3.066,2.326,5.068,4.9,6.593,6.645c1.804,2.129,2.656,3.547,2.341,3.577c0.321-0.021-0.463-1.495-2.173-3.711
			c-1.527-1.913-3.578-4.8-6.944-7.407l0.536-0.724c0.068-0.035,0.138-0.071,0.207-0.106c2.492,0.39,4.839,0.938,6.998,1.612
			c-1.314,2.363-0.724,5.37,0.916,6.984c1.644,1.844,3.877,2.628,5.683,2.686c0.46,0.01,0.889-0.012,1.288-0.058
			c-2.808,1.728-4.749,5.122-4.493,8.71c0.159,3.988,2.563,7.979,6.323,9.973c3.772,2.07,8.308,1.708,11.882,0.124
			c3.635-1.606,6.413-4.592,7.825-7.931c0.528-1.196,0.857-2.425,1.042-3.653c0.184,1.228,0.514,2.457,1.041,3.653
			c1.412,3.339,4.191,6.324,7.826,7.931c3.574,1.584,8.109,1.946,11.881-0.124c3.76-1.994,6.165-5.984,6.324-9.973
			c0.256-3.588-1.686-6.982-4.492-8.71c0.397,0.046,0.826,0.067,1.287,0.057c1.806-0.058,4.039-0.841,5.682-2.685
			c1.641-1.614,2.232-4.621,0.917-6.984c1.324-0.414,2.726-0.773,4.182-1.084c0.977,0.417,1.951,0.696,2.911,0.817
			c-2.987,2.466-4.871,5.104-6.297,6.891c-1.709,2.216-2.494,3.69-2.172,3.711c-0.317-0.03,0.535-1.448,2.34-3.577
			c1.524-1.744,3.527-4.318,6.593-6.645c-0.296,0.369-0.582,0.756-0.851,1.168c-0.867,1.336-1.577,2.885-1.982,4.582
			c-0.402,1.669-0.611,3.546-0.136,5.434c0.94,3.777,4.327,6.354,7.578,6.703c1.62,0.27,3.367-0.193,4.482-1.18
			c1.155-0.959,1.769-2.305,1.884-3.533c0.186-1.266-0.434-2.455-1.243-3.01c-0.811-0.576-1.718-0.699-2.38-0.473
			c-1.154,0.539-1.116,1.41-1.122,1.573c0.024-0.159,0.112-1.007,1.187-1.369c0.575-0.143,1.404,0.052,2.045,0.609
			c0.652,0.556,1.066,1.526,0.835,2.577c-0.271,2.143-2.676,4.33-5.52,3.66c-2.819-0.433-5.618-2.698-6.419-5.898
			c-0.402-1.565-0.254-3.229,0.086-4.797c0.335-1.559,0.938-2.998,1.686-4.266c0.468-0.786,1-1.492,1.563-2.135
			c0.207-0.018,0.306-0.033,0.271-0.068c-0.055-0.017-0.112-0.042-0.167-0.06c0.007-0.008,0.014-0.017,0.021-0.025
			c2.058,1.053,4.176,2.109,6.398,3.038c6.656,2.914,13.547,4.738,19.926,4.724c4.532,0.037,8.703-0.801,12.244-2.108
			c0.748,0.24,1.488,0.472,2.225,0.689c0.704,0.217,1.404,0.418,2.1,0.605c-0.98,0.51-1.789,1.079-2.415,1.602
			c-1.669,1.415-2.294,2.48-2.315,2.455c0.021,0.025,0.666-1.029,2.35-2.414c0.65-0.527,1.495-1.1,2.518-1.605
			c5.156,1.374,10.027,1.91,14.164,1.514c0.115-0.01,0.229-0.023,0.342-0.034c0.283,0.206,0.548,0.417,0.799,0.634
			c0.767,0.732,1.454,1.589,2.022,2.583c0.438,0.777,0.776,1.63,1.006,2.525c0.108,0.386,0.117,0.411,0.118,0.515
			c0.307,1.502,0.303,3.104-0.08,4.664c-0.646,2.658-2.378,5.279-5.066,6.479c-2.659,1.207-5.847,0.884-8.097-0.7
			c-2.331-1.496-3.362-4.426-2.759-6.875c0.292-1.217,0.906-2.35,1.777-3.155c0.884-0.798,2.015-1.247,3.131-1.313
			c2.235-0.132,4.367,1.277,4.805,3.172c0.495,1.858-0.447,3.772-1.847,4.39c-1.415,0.648-2.907,0.121-3.595-0.689
			c-0.711-0.846-0.677-1.803-0.507-2.328c0.157-0.554,0.406-0.77,0.376-0.782c0.03,0.014-0.223,0.224-0.391,0.778
			c-0.178,0.525-0.232,1.492,0.48,2.367c0.69,0.836,2.207,1.403,3.68,0.752c1.461-0.622,2.461-2.586,1.969-4.53
			c-0.439-1.987-2.647-3.483-4.982-3.364c-1.168,0.059-2.359,0.52-3.294,1.353c-0.929,0.847-1.568,2.013-1.884,3.286
			c-0.648,2.551,0.418,5.634,2.855,7.21c2.334,1.655,5.654,2,8.423,0.742c2.807-1.257,4.591-3.979,5.243-6.716
			c0.581-2.403,0.292-4.896-0.639-6.988c-0.493-1.311-1.514-2.781-3.07-4.057c4.339-0.483,7.725-1.695,10.02-2.639
			c2.442-1.023,3.717-1.754,3.723-1.739c-0.006-0.015-1.285,0.708-3.732,1.72c-2.309,0.937-5.719,2.139-10.082,2.6
			c-0.166-0.135-0.337-0.268-0.516-0.396c-1.27-0.928-2.759-1.814-4.434-2.608c1.965,0.136,3.898,0.093,5.76-0.157
			c3.301-0.38,6.793-1.505,8.585-4.279c0.851-1.392,1.036-3.018,0.659-4.473c-0.402-1.456-1.488-2.587-2.727-3.125
			c-1.238-0.523-2.652-0.556-3.746,0.065c-0.84,0.471-1.384,1.264-1.606,2.091c-0.822-0.696-1.661-1.452-2.522-2.285
			c-1.222-1.189-2.267-2.33-3.144-3.422c2.309-0.271,4.416-0.423,6.295-0.449c7.571-0.062,12.495,1.723,14.712,5.355l0.553,1.23
			c0.309,0.678,0.431,1.047,0.37,1.047C234.191,47.472,234.191,47.288,234.13,46.98z M212.328,25.676
			c2.093-1.416,3.755-2.154,4.924-2.154c0.739,0,1.108,0.369,1.108,1.108c0,1.108-0.677,2.216-2.093,3.324
			c-1.354,1.108-2.586,1.724-3.755,1.785l-1.97,0.123c-0.8,0.062-1.416,0.308-1.908,0.8L212.328,25.676z M163.898,13.803
			c0.063-0.399,0.236-0.811,0.479-1.223C164.207,12.965,164.043,13.367,163.898,13.803z M112.881,56.938
			c1.774,4.048,0.51,8.761-2.264,11.37c-1.345,1.256-2.931,2.289-4.516,2.409c0.175-0.171,0.343-0.354,0.5-0.55
			c1.838-2.17,1.638-5.891-0.471-8.387c-1.053-1.25-2.575-2.186-4.295-2.521c-0.086-0.016-0.173-0.028-0.26-0.042
			c-0.178-0.199-0.369-0.4-0.571-0.605c1.572-0.955,3.262-2.404,4.603-4.561c0.785-1.244,1.436-2.794,1.791-4.492
			C109.637,51.485,111.595,53.992,112.881,56.938z M92.975,52.966c-0.447-0.222-0.909-0.438-1.386-0.646
			c0.095-0.274,0.269-0.503,0.464-0.64c0.773-0.448,1.247,0.05,1.342,0.161c-0.088-0.122-0.521-0.674-1.401-0.25
			c-0.219,0.133-0.426,0.367-0.551,0.664c-0.989-0.43-2.039-0.832-3.141-1.201c0.05-0.083,0.103-0.164,0.159-0.245
			c0.27-0.388,0.588-0.737,0.937-1.038c1.053,0.464,2.104,0.772,3.138,0.893c0.053,0.017,0.104,0.041,0.156,0.057
			c0.849,0.256,1.735,0.357,2.588,0.279c0.187,0.553,0.191,1.146,0.012,1.676c-0.163,0.452-0.437,0.854-0.772,1.146
			C94.021,53.535,93.507,53.25,92.975,52.966z M94.466,53.864c-0.326,0.268-0.706,0.434-1.1,0.443
			c-0.82,0.045-1.562-0.488-1.78-1.096c-0.1-0.285-0.093-0.569-0.02-0.82c0.473,0.206,0.932,0.417,1.376,0.636
			C93.468,53.304,93.976,53.583,94.466,53.864z M88.307,45.865c0.653-0.219,1.308-0.414,1.964-0.577
			c0.803-0.202,1.611-0.341,2.408-0.411c0.011,0.272,0.058,0.533,0.141,0.764c0.382,1.054,1.236,1.502,1.778,1.619
			c0.561,0.14,0.871,0.03,0.868,0.063c0.003-0.031-0.307,0.074-0.866-0.069c-0.54-0.119-1.387-0.573-1.76-1.62
			c-0.081-0.229-0.126-0.487-0.134-0.76c2.117-0.187,4.165,0.104,5.891,0.986c0.236,0.115,0.622,0.326,0.717,0.385
			c0.215,0.125,0.424,0.258,0.627,0.397c-0.12,0.688-0.38,1.368-0.788,1.975c-0.63,0.942-1.605,1.7-2.759,2.063
			c-0.201,0.061-0.405,0.108-0.614,0.146c-0.151-0.498-0.421-0.969-0.81-1.352c-0.865-0.92-2.231-1.475-3.619-1.304
			c-0.326,0.03-0.639,0.115-0.943,0.226c-0.516-0.34-1.037-0.702-1.57-1.105C88.61,46.84,88.427,46.364,88.307,45.865z
			 M88.624,47.123c-0.389-0.299-0.781-0.609-1.179-0.941c0.246-0.09,0.492-0.192,0.738-0.276
			C88.287,46.33,88.442,46.733,88.624,47.123z M97.944,42.122c0.321,0.18,0.63,0.393,0.902,0.668
			c0.346,0.327,0.59,0.741,0.783,1.184C99.155,43.305,98.59,42.689,97.944,42.122z M99.964,45.447l0.047,0.104
			c0,0.019,0.002,0.037,0.002,0.055c-0.156-0.102-0.315-0.198-0.479-0.293C99.678,45.355,99.821,45.401,99.964,45.447z
			 M99.198,44.288c-1.459-0.311-2.869-0.462-4.163-0.476c-0.703-0.094-1.421-0.129-2.145-0.102c0.207-0.58,0.587-1.139,1.182-1.555
			c0.438-0.316,0.988-0.495,1.573-0.545C97.125,42.301,98.309,43.193,99.198,44.288z M91.159,48.875
			c0.091-0.018,0.18-0.047,0.273-0.056c1.176-0.161,2.354,0.282,3.125,1.058c0.313,0.296,0.54,0.646,0.683,1.018
			c-0.717,0.059-1.458-0.016-2.178-0.197c0.294,0.018,0.588,0.042,0.878,0.031c0.677-0.063,0.985-0.063,0.923-0.123
			C93.686,50.244,92.45,49.661,91.159,48.875z M95.731,52.833c0.23-0.58,0.255-1.261,0.081-1.906
			c0.208-0.038,0.414-0.088,0.615-0.148c1.176-0.373,2.167-1.15,2.805-2.111c0.405-0.607,0.665-1.285,0.788-1.973
			c0.255,0.179,0.495,0.371,0.726,0.568c0.041,0.129,0.055,0.209,0.029,0.209c0.052,0,0.079-0.04,0.091-0.102
			c1.229,1.09,2.083,2.441,2.291,3.912c0.372,2.243-0.542,4.321-1.691,5.719c-0.326,0.398-0.67,0.752-1.024,1.067
			c-1.401-1.304-3.273-2.681-5.552-4.029C95.249,53.724,95.544,53.305,95.731,52.833z M103.834,51.183
			c-0.223-1.869-1.249-3.521-2.759-4.795c0.625,0.083,1.362,0.211,2.199,0.41c0.456,0.231,0.908,0.482,1.356,0.758
			c0.923,0.554,1.827,1.203,2.691,1.938c-0.345,1.708-0.99,3.268-1.773,4.521c-1.327,2.154-3.006,3.61-4.572,4.569
			c-0.086-0.086-0.175-0.174-0.267-0.262c0.371-0.306,0.736-0.65,1.085-1.041C103.057,55.87,104.149,53.699,103.834,51.183z
			 M100.995,46.322c-0.087-0.072-0.186-0.134-0.276-0.204c-0.038-0.151-0.087-0.305-0.145-0.459c0.773,0.268,1.55,0.575,2.325,0.952
			C102.18,46.47,101.543,46.378,100.995,46.322z M100.687,58.342c0.09,0.087,0.18,0.173,0.266,0.259
			c-0.33,0.201-0.655,0.382-0.97,0.541c-0.164,0.008-0.328,0.02-0.491,0.036C99.889,58.943,100.291,58.666,100.687,58.342z
			 M100.979,58.628c0.197,0.196,0.384,0.392,0.557,0.585c-0.488-0.071-0.985-0.093-1.482-0.073
			C100.355,58.988,100.665,58.818,100.979,58.628z M104.466,25.737c1.908-1.662,3.447-2.462,4.617-2.462
			c0.738,0,1.046,0.308,0.985,0.985c-0.062,0.923-0.677,1.724-1.724,2.401l-2.955,1.477c1.416,0,2.647-0.246,3.693-0.738
			l-2.093,2.831l-2.955,4.063c-0.933,0.604-2.173,1.257-3.606,1.915c-0.151-0.053-0.297-0.115-0.451-0.162
			c-0.525-0.162-1.076-0.273-1.634-0.354c-0.011-0.076-0.025-0.15-0.034-0.229C98.126,32.57,100.219,29.369,104.466,25.737z
			 M103.174,35.462c-0.365,0.526-0.729,1.016-1.093,1.489c-0.292-0.163-0.592-0.312-0.9-0.449
			C101.782,36.216,102.43,35.856,103.174,35.462z M100.261,36.286c-0.119,0.054-0.229,0.107-0.35,0.161l-0.369,0.124
			c-0.308,0.061-0.554,0.185-0.739,0.369c-0.238-0.333-0.365-0.704-0.438-1.111c0.538,0.08,1.068,0.187,1.575,0.342
			C100.049,36.204,100.153,36.25,100.261,36.286z M91.696,37.243c1.265-0.896,2.729-1.361,4.214-1.495
			c0.004,0.876,0.181,1.66,0.554,2.299c0.062,0.185,0.616,0.924,1.601,2.216c0.062,0,0.062-0.062,0-0.123
			c-0.062-0.185-0.062-0.431-0.062-0.677c0.123-1.108,0.739-1.908,1.908-2.4l0.554-0.246c0.184-0.071,0.372-0.154,0.564-0.243
			c0.334,0.144,0.657,0.304,0.972,0.479c-0.164,0.21-0.327,0.426-0.49,0.625h0.062c-0.185,0.185-0.308,0.369-0.308,0.554
			c0,0.431,0.185,0.616,0.616,0.616c0.185,0,0.308-0.062,0.492-0.185c0.454-0.179,0.872-0.343,1.263-0.498
			c0.999,0.823,1.835,1.804,2.451,2.876c1.295,2.289,1.659,4.745,1.444,7.029c-0.753-0.567-1.53-1.073-2.318-1.513
			c-1.752-0.996-3.541-1.672-5.271-2.106c-0.034-0.054-0.064-0.11-0.099-0.164c-0.2-0.591-0.506-1.13-0.949-1.547
			c-0.352-0.352-0.752-0.624-1.175-0.82c-1.144-0.954-2.528-1.755-4.147-2.39c-1.083-0.409-2.185-0.74-3.309-0.991
			C90.689,38.06,91.162,37.617,91.696,37.243z M95.563,41.57c-0.563,0.064-1.091,0.242-1.515,0.55c-0.604,0.428-0.988,1-1.192,1.59
			c-0.947,0.039-1.903,0.184-2.842,0.45c-0.629,0.145-1.252,0.314-1.874,0.505V44.66c-0.128-1.584,0.274-3.217,1.082-4.648
			C91.726,40.261,93.839,40.781,95.563,41.57z M86.849,42.332c0.135-0.5,0.177-1.045,0.158-1.601l0.651-0.835
			c0.484,0.025,0.958,0.058,1.416,0.101c-0.799,1.442-1.196,3.082-1.066,4.672c0,0.013,0.001,0.025,0.003,0.038
			c-0.544,0.169-1.084,0.359-1.623,0.557c-0.162-0.144-0.324-0.287-0.487-0.437C86.327,44.094,86.666,43.262,86.849,42.332z
			 M85.626,42.502c-0.108,0.569-0.278,1.103-0.497,1.602c-0.141-0.134-0.279-0.257-0.421-0.394
			c-0.004-0.004-0.009-0.009-0.013-0.013L85.626,42.502z M79.986,36.087c0.97-0.222,2.176-0.007,3.157,0.54
			c0.641,0.347,1.157,0.824,1.57,1.368c-1.49,0.003-3.044,0.072-4.641,0.232c-0.388-0.609-0.708-1.198-0.974-1.771
			C79.376,36.298,79.668,36.162,79.986,36.087z M82.611,41.523c-0.298-0.335-0.586-0.667-0.854-0.995
			c0.025-0.185,0.025-0.36,0-0.528c0.864-0.066,1.684-0.106,2.477-0.132L82.611,41.523z M84.125,45.796
			c-0.159,0.203-0.315,0.41-0.484,0.588c-0.521,0.231-1.041,0.483-1.561,0.73l0.925-1.25l0.512-0.656
			C83.713,45.404,83.919,45.6,84.125,45.796z M81.479,40.02c0,0.054,0.007,0.105,0,0.161c-0.04-0.05-0.079-0.1-0.117-0.149
			C81.4,40.028,81.441,40.023,81.479,40.02z M79.359,40.226c0.306,0.472,0.642,0.946,1.003,1.424
			c-0.26,0.107-0.553,0.165-0.888,0.116c-0.734-0.098-1.494-0.557-1.871-1.31c-0.002-0.005-0.003-0.011-0.005-0.015
			C78.2,40.36,78.786,40.29,79.359,40.226z M81.753,25.676c2.093-1.416,3.754-2.154,4.924-2.154c0.738,0,1.108,0.369,1.108,1.108
			c0,1.108-0.677,2.216-2.093,3.324c-1.354,1.108-2.585,1.724-3.754,1.785l-1.97,0.123c-0.8,0.062-1.416,0.308-1.908,0.8
			L81.753,25.676z M77.719,37.871c0.057-0.11,0.137-0.208,0.206-0.313c0.127,0.292,0.261,0.585,0.41,0.88
			c-0.286,0.04-0.582,0.084-0.88,0.13C77.517,38.332,77.604,38.098,77.719,37.871z M60.923,43.691l7.043-1.512
			c3.137-0.694,6.009-1.217,8.646-1.597c0.053,0.116,0.11,0.23,0.178,0.338c0.612,1.002,1.695,1.505,2.635,1.528
			c0.491,0.022,0.938-0.116,1.304-0.341c0.191,0.242,0.391,0.485,0.596,0.729l-4.536,4.629c-0.119,0.124-0.229,0.241-0.345,0.363
			c-0.627-0.401-1.255-0.76-1.867-1.03c-0.923-0.398-1.786-0.676-2.574-0.868c-3.192-1.079-6.835-1.669-10.727-1.429
			c-0.345,0.021-0.695,0.073-1.042,0.105L60.923,43.691z M61.357,45.656c5.491-0.45,10.544,0.811,14.504,2.785
			c-0.068,0.072-0.131,0.14-0.199,0.211c-5.896-0.392-12.353,0.109-18.885,1.898c-0.409,0.104-0.804,0.224-1.208,0.334
			c2.313-3.129,3.545-4.788,3.686-4.977C59.959,45.804,60.662,45.712,61.357,45.656z M75.557,48.766
			c-0.368,0.392-0.72,0.769-1.057,1.134c-1.55,0.602-4.159,1.473-7.687,2.045c-2.969,0.468-6.547,0.696-10.525,0.646
			c-0.651-0.003-1.325-0.019-1.997-0.034c0.087-0.099,0.167-0.188,0.257-0.292c0.316-0.428,0.606-0.82,0.891-1.205
			c0.458-0.125,0.909-0.259,1.373-0.378C63.293,48.908,69.7,48.399,75.557,48.766z M58.979,42.233l-0.925,1.262
			c-0.138,0.037-0.266,0.071-0.396,0.106C58.098,43.146,58.536,42.693,58.979,42.233z M56.693,44.599l0.654-0.141l-0.458,0.624
			c-0.268,0.051-0.534,0.087-0.803,0.145C56.289,45.017,56.49,44.809,56.693,44.599z M55.785,46.589l-1.545,2.107
			c-0.914,1.235-1.762,2.337-2.55,3.32c-0.46,0.144-0.929,0.282-1.384,0.43c-0.346-0.011-0.708-0.018-1.058-0.028
			c0.086-0.094,0.163-0.179,0.252-0.276c1.598-1.728,3.249-3.457,4.932-5.204C54.884,46.814,55.334,46.699,55.785,46.589z
			 M51.536,52.206c-0.076,0.094-0.148,0.181-0.223,0.273c-0.204-0.006-0.399-0.012-0.605-0.018
			C50.98,52.373,51.261,52.292,51.536,52.206z M40.854,51.861c3.625-1.236,7.159-2.751,10.486-3.967
			c0.665-0.232,1.329-0.436,1.993-0.637l-0.263,0.27c-1.815,1.9-3.303,3.52-4.484,4.875c-1.721-0.047-3.472-0.084-5.275-0.072
			c-1.432,0.01-2.846,0.059-4.23,0.156C39.669,52.277,40.26,52.067,40.854,51.861z M21.025,58.952
			c-0.09-0.009-0.176-0.018-0.265-0.026c0.078-0.056,0.153-0.111,0.233-0.167c0.788-0.542,1.662-1.069,2.608-1.57
			c1.899-0.814,3.892-1.155,5.621-1.118c2.299,0.033,4.252,0.615,5.809,1.361C29.931,58.79,25.121,59.328,21.025,58.952z
			 M37.386,56.752c-0.742,0.23-1.479,0.444-2.211,0.642c-1.573-0.797-3.572-1.434-5.95-1.496c-1.235-0.037-2.607,0.112-3.99,0.488
			c0.5-0.229,1.019-0.447,1.552-0.657c1.085-0.126,2.178-0.303,3.27-0.528c1.617-0.315,3.219-0.764,4.817-1.273
			c0.255,0.152,0.519,0.303,0.788,0.45c1.16,0.63,2.432,1.214,3.8,1.729C38.765,56.33,38.073,56.547,37.386,56.752z M35.981,53.771
			c-0.083-0.043-0.163-0.083-0.245-0.125c0.254-0.084,0.507-0.17,0.761-0.257c2.188-0.245,4.475-0.359,6.819-0.375
			c1.597-0.012,3.166,0.01,4.706,0.041c-0.061,0.071-0.123,0.144-0.181,0.213c-2.412,0.815-4.762,1.642-7.041,2.399
			C39.05,55.138,37.434,54.492,35.981,53.771z M45.379,56.706c-1.528-0.241-2.994-0.569-4.374-0.977
			c2.163-0.718,4.392-1.495,6.67-2.264C46.428,54.96,45.663,56.04,45.379,56.706z M47.083,56.932
			c-0.398-0.042-0.792-0.09-1.183-0.146c0.139-0.597,1.033-1.801,2.67-3.625c0.091-0.031,0.178-0.062,0.27-0.092
			c0.665,0.014,1.304,0.026,1.956,0.041C49.286,54.921,48.046,56.195,47.083,56.932z M51.872,57.125
			c-0.752,0.022-1.492,0.012-2.224-0.013c0.581-0.366,1.203-0.871,1.883-1.522c0.155-0.155,0.928-0.973,2.229-2.436
			c0.851,0.01,1.707,0.023,2.526,0.015c3.999-0.014,7.606-0.33,10.584-0.886c3.423-0.657,5.957-1.586,7.503-2.248
			c-0.479,0.52-0.924,1.011-1.339,1.476c-0.586,0.266-1.167,0.54-1.765,0.788C64.711,55.168,58.055,57.011,51.872,57.125z
			 M70.264,57.314c-0.246,0.123-0.431,0.123-0.554,0.062c-0.062-0.124-0.123-0.247-0.123-0.431c0-0.498,0.779-1.652,2.342-3.438
			c1.2-0.505,2.366-1.046,3.512-1.604C73.161,54.763,71.418,56.576,70.264,57.314z M74.251,50.969
			c0.474-0.508,0.947-1.016,1.436-1.533c0.193-0.094,0.321-0.157,0.391-0.188c-0.059,0.021-0.162,0.064-0.352,0.147
			c0.184-0.194,0.375-0.393,0.561-0.588c0.037,0.003,0.075,0.003,0.112,0.006c0.277,0.22,0.552,0.452,0.823,0.701
			C76.242,50.006,75.253,50.495,74.251,50.969z M77.896,48.697c-0.009,0.013-0.018,0.023-0.027,0.036
			c-0.242-0.155-0.484-0.31-0.738-0.46c-0.069-0.05-0.139-0.086-0.208-0.134c1.52-1.59,3.106-3.216,4.751-4.874
			c0.044,0.051,0.097,0.103,0.142,0.154L77.896,48.697z M80.75,49.218c1.577-0.804,3.125-1.559,4.665-2.225
			c1.3,1.15,2.386,1.966,3.232,2.441c0.021,0.011,0.042,0.018,0.063,0.028c-0.306,0.292-0.582,0.616-0.817,0.961
			c-0.095,0.134-0.181,0.272-0.262,0.411C85.509,50.164,83.199,49.614,80.75,49.218z M94.209,60.242
			c-1.729-0.139-3.793-0.971-5.272-2.725c-1.483-1.556-1.93-4.277-0.682-6.388c1.108,0.367,2.163,0.768,3.16,1.196
			c-0.104,0.278-0.134,0.606-0.036,0.951c0.222,0.73,1.016,1.368,1.994,1.373c0.528,0.008,1.04-0.209,1.466-0.568
			c2.288,1.34,4.167,2.712,5.576,4.008c-0.56,0.496-1.143,0.895-1.712,1.205c-0.719,0.137-1.431,0.356-2.117,0.653
			c-0.175,0.073-0.346,0.156-0.517,0.243C95.515,60.265,94.894,60.292,94.209,60.242z M116.481,71.171
			c-1.388,3.199-4.075,6.043-7.561,7.563c-3.441,1.5-7.754,1.822-11.291-0.128c-3.546-1.883-5.825-5.635-5.994-9.405
			c-0.288-3.781,2.018-7.339,5.19-8.726c1.567-0.697,3.315-0.973,4.914-0.697c0.117,0.022,0.234,0.048,0.35,0.075
			c1.606,1.959,1.275,3.56,1.259,3.498c0.015,0.063,0.354-1.528-1.228-3.49c1.446,0.352,2.731,1.158,3.652,2.225
			c2.007,2.32,2.253,5.815,0.559,7.871c-0.221,0.287-0.467,0.545-0.731,0.775c-1.504-0.031-2.877-0.734-3.74-1.729
			c-1.001-1.063-1.324-2.431-0.746-3.453c0.527-0.982,1.593-1.574,2.324-1.14c0.777,0.353,0.818,1.244,0.374,1.458
			c-0.353,0.215-0.532-0.05-0.563-0.102c0.029,0.058,0.184,0.35,0.596,0.151c0.2-0.108,0.411-0.382,0.378-0.743
			c-0.046-0.357-0.289-0.714-0.681-0.951c-0.838-0.564-2.148,0.025-2.805,1.113c-0.774,1.117-0.45,2.909,0.6,4.105
			c0.725,0.938,1.846,1.703,3.164,2.037c-1.49,0.771-3.233,0.822-4.492,0.13c-1.892-0.997-2.563-3.071-2.26-4.501
			c0.313-1.488,1.409-2.254,2.12-2.517c0.743-0.284,1.184-0.216,1.176-0.238c0.007,0.022-0.431-0.058-1.187,0.211
			c-0.721,0.249-1.857,0.993-2.215,2.522c-0.343,1.465,0.297,3.625,2.262,4.715c1.406,0.803,3.397,0.729,5.05-0.225
			c0.34,0.059,0.69,0.09,1.049,0.086c2.004-0.025,3.843-1.146,5.409-2.518c3.187-2.795,4.752-8.133,2.73-12.744
			c-1.237-2.833-3.065-5.239-5.163-7.134c1.623,1.044,3.264,2.446,4.729,4.317c1.65,2.094,2.992,4.771,3.629,7.838
			C117.956,64.475,117.932,67.964,116.481,71.171z M174.748,45.656c3.264,0.264,6.635,1.059,10.018,2.238
			c3.328,1.216,6.861,2.73,10.486,3.967c0.594,0.206,1.185,0.416,1.773,0.625c-1.385-0.098-2.799-0.146-4.23-0.156
			c-2.404-0.018-4.742,0.048-6.994,0.117c-2.101-0.68-4.255-1.329-6.473-1.896c-6.742-1.846-13.41-2.329-19.457-1.867
			c0.082-0.063,0.164-0.123,0.246-0.184C164.096,46.49,169.201,45.202,174.748,45.656z M149.788,38.065
			c-0.172,0.344-0.312,0.696-0.42,1.057c-0.796,0.448-1.563,0.752-2.307,0.931c-0.231-0.424-0.493-0.832-0.793-1.215
			C147.421,38.722,148.592,38.461,149.788,38.065z M148.572,40.886c0.174,0.017,0.35,0.022,0.527,0.022
			c-0.002,0.493,0.037,0.977,0.158,1.423c0.256,1.299,0.806,2.414,1.487,3.322c-0.432-0.173-0.865-0.337-1.299-0.493
			c-0.441-0.395-0.888-0.81-1.34-1.243c-0.018-1.054-0.25-2.11-0.672-3.104c0.406,0.063,0.809,0.112,1.203,0.133
			C148.635,40.886,148.635,40.886,148.572,40.886z M146.11,38.854c0.31,0.387,0.577,0.802,0.814,1.233
			c-0.658,0.144-1.299,0.194-1.923,0.123c0.764,0.267,1.526,0.455,2.274,0.58c0.42,0.96,0.662,1.983,0.698,3.007
			c-0.031-0.03-0.061-0.056-0.091-0.085c-1.772-1.725-3.178-3.349-4.225-4.867c0.405,0.039,0.811,0.073,1.221,0.073
			C145.287,38.917,145.698,38.891,146.11,38.854z M144.113,51.591c-0.881-0.424-1.314,0.127-1.403,0.25
			c0.096-0.111,0.569-0.609,1.343-0.161c0.195,0.137,0.368,0.365,0.465,0.64c-0.477,0.209-0.939,0.425-1.387,0.646
			c-0.533,0.283-1.047,0.568-1.543,0.855c-0.336-0.293-0.609-0.694-0.772-1.146c-0.18-0.53-0.175-1.123,0.012-1.676
			c0.853,0.078,1.739-0.023,2.588-0.279c0.935-0.275,1.812-0.793,2.547-1.483c0.655,0.362,1.231,0.922,1.683,1.572
			c0.057,0.081,0.109,0.162,0.16,0.245c-1.103,0.369-2.151,0.771-3.143,1.201C144.537,51.958,144.33,51.724,144.113,51.591z
			 M144.52,53.211c-0.219,0.607-0.961,1.141-1.781,1.096c-0.393-0.01-0.773-0.176-1.098-0.443c0.489-0.28,0.996-0.56,1.521-0.837
			c0.444-0.219,0.904-0.43,1.377-0.637C144.611,52.642,144.619,52.926,144.52,53.211z M135.031,46.388
			c-1.511,1.273-2.537,2.926-2.76,4.795c-0.316,2.515,0.777,4.687,2.037,6.1c0.351,0.391,0.716,0.735,1.086,1.041
			c-0.091,0.088-0.18,0.176-0.266,0.262c-1.565-0.959-3.246-2.416-4.572-4.569c-0.783-1.254-1.428-2.813-1.772-4.521
			c0.864-0.735,1.769-1.385,2.691-1.938c0.448-0.275,0.901-0.526,1.356-0.758C133.669,46.599,134.404,46.471,135.031,46.388z
			 M133.206,46.611c0.937-0.455,1.878-0.828,2.808-1.125c-0.002,0.059-0.005,0.117-0.007,0.176c-0.313,0.206-0.614,0.426-0.896,0.66
			C134.563,46.378,133.926,46.47,133.206,46.611z M136.051,59.14c-0.498-0.02-0.994,0.002-1.482,0.073
			c0.174-0.193,0.36-0.389,0.559-0.586C135.44,58.818,135.75,58.988,136.051,59.14z M135.153,58.601
			c0.086-0.086,0.175-0.172,0.266-0.259c0.396,0.323,0.797,0.601,1.196,0.836c-0.164-0.017-0.327-0.028-0.491-0.036
			C135.809,58.983,135.483,58.802,135.153,58.601z M134.641,57.001c-1.148-1.397-2.063-3.476-1.691-5.719
			c0.252-1.791,1.455-3.41,3.137-4.588c0.122,0.688,0.383,1.365,0.787,1.973c0.639,0.961,1.629,1.738,2.806,2.111
			c0.201,0.061,0.407,0.11,0.616,0.148c-0.176,0.646-0.152,1.326,0.08,1.906c0.186,0.472,0.481,0.891,0.842,1.206
			c-2.279,1.349-4.15,2.726-5.553,4.029C135.311,57.753,134.966,57.4,134.641,57.001z M136.57,45.314
			c-0.164,0.095-0.322,0.191-0.479,0.293c0.001-0.049,0.003-0.099,0.007-0.146C136.255,45.41,136.414,45.36,136.57,45.314z
			 M136.281,44.421c0.189-0.629,0.516-1.194,0.978-1.632c1.37-1.384,3.521-1.54,4.774-0.634c0.594,0.416,0.975,0.975,1.182,1.555
			c-0.724-0.027-1.442,0.008-2.146,0.102C139.592,43.828,137.965,44.009,136.281,44.421z M140.865,50.894
			c0.143-0.372,0.369-0.723,0.683-1.018c0.771-0.775,1.95-1.219,3.126-1.058c0.409,0.042,0.803,0.169,1.172,0.357
			c-0.713,0.664-1.561,1.164-2.465,1.434C142.557,50.861,141.695,50.962,140.865,50.894z M144.753,48.168
			c-1.387-0.171-2.753,0.384-3.618,1.304c-0.389,0.383-0.659,0.854-0.811,1.352c-0.209-0.037-0.414-0.085-0.615-0.146
			c-1.152-0.362-2.127-1.12-2.758-2.063c-0.407-0.607-0.668-1.287-0.787-1.975c0.203-0.14,0.412-0.272,0.627-0.397
			c0.096-0.059,0.48-0.27,0.717-0.385c1.727-0.883,3.775-1.173,5.892-0.986c-0.009,0.272-0.054,0.531-0.134,0.76
			c-0.373,1.047-1.221,1.501-1.762,1.62c-0.558,0.144-0.868,0.038-0.865,0.069c-0.003-0.032,0.307,0.077,0.867-0.063
			c0.542-0.117,1.396-0.565,1.779-1.619c0.083-0.23,0.129-0.491,0.141-0.764c0.798,0.07,1.604,0.209,2.408,0.411
			c0.451,0.112,0.9,0.257,1.35,0.396c0.173,0.167,0.338,0.333,0.517,0.5c-0.275,0.928-0.746,1.78-1.368,2.49
			C145.844,48.402,145.313,48.22,144.753,48.168z M144.408,37.243c0.415,0.291,0.786,0.628,1.136,0.985
			c-0.575,0.087-1.146,0.134-1.712,0.134c-0.159,0-0.33-0.008-0.509-0.021c-0.493-0.764-0.895-1.5-1.199-2.206
			C142.926,36.387,143.7,36.741,144.408,37.243z M149.853,23.521c0.739,0,1.108,0.369,1.108,1.108c0,1.108-0.678,2.216-2.094,3.324
			c-1.354,1.108-2.585,1.724-3.754,1.785l-1.971,0.123c-0.8,0.062-1.415,0.308-1.907,0.8l3.692-4.986
			C147.021,24.26,148.683,23.521,149.853,23.521z M140.127,34.293c0.064,0.442,0.163,0.888,0.283,1.336
			c-1.05-0.116-2.111-0.058-3.126,0.136c-0.026-0.03-0.053-0.06-0.079-0.09c0.355-0.371,0.713-0.763,1.076-1.197
			c0.677-0.8,1.477-1.846,2.4-3.078C140.127,32.323,139.942,33.308,140.127,34.293z M140.445,35.771
			c0.212,0.757,0.525,1.525,0.894,2.299c-0.031-0.005-0.059-0.009-0.091-0.015c-1.536-0.308-2.817-1.03-3.853-2.173
			C138.388,35.701,139.422,35.652,140.445,35.771z M134.361,32.446c-1.6,1.785-3.878,3.078-6.895,3.939l4.248-5.54
			c0.555-0.739,0.861-1.231,1.047-1.416c0.569-0.763,1.093-1.436,1.594-2.067c-0.061,0.753-0.075,1.506-0.002,2.259
			c0.01,0.116,0.034,0.224,0.047,0.338c-0.056,0.009-0.103,0.014-0.162,0.024v0.062c0.063,0.004,0.118,0.012,0.176,0.019
			c0.082,0.659,0.202,1.292,0.376,1.886C134.666,32.115,134.528,32.28,134.361,32.446z M134.863,30.146
			c0.481,0.134,0.68,0.384,0.545,0.701c-0.079,0.21-0.188,0.434-0.321,0.662C134.981,31.063,134.908,30.609,134.863,30.146z
			 M135.246,32.104c0.118-0.172,0.24-0.341,0.346-0.519c0.432-0.8,0.432-1.292-0.061-1.6c-0.122-0.081-0.359-0.103-0.691-0.078
			c-0.044-0.593-0.044-1.201,0.006-1.823c0.053-0.558,0.147-1.103,0.256-1.645c1.974-2.382,3.351-3.594,4.122-3.594
			c0.185,0,0.308,0.062,0.37,0.246c0.062-0.123,0.062-0.246,0.062-0.308c0-0.308-0.37-0.493-1.17-0.493
			c-0.246,0-0.431,0-0.616,0.062c-0.168,0.034-0.718,0.22-1.604,0.549c0.11-0.237,0.226-0.474,0.349-0.708
			c1.534-0.427,3.057-1.143,4.58-2.181l-0.492-0.739c-0.246-0.369-0.492-0.554-0.8-0.554c-0.185,0-0.308,0.123-0.431,0.308
			c-0.206,0.382-0.817,0.851-1.809,1.415c1.428-2.106,3.369-4.075,5.862-5.902c3.509-2.647,6.587-3.939,9.233-3.939
			c0.354,0,0.689,0.032,1.011,0.082c-1.162,0.929-2.324,2.168-3.486,3.728L136.373,33l-0.498,0.626
			C135.618,33.135,135.409,32.626,135.246,32.104z M130.018,41.042c0.433-0.754,0.981-1.459,1.611-2.101
			c1.647-0.125,3.401-1.102,5.261-2.953c0.066-0.016,0.13-0.036,0.197-0.05c0.533,0.552,1.139,1.053,1.821,1.502
			c-0.061-0.062-0.123-0.062-0.185-0.062c0.93,0.479,1.861,0.828,2.797,1.081c0.925,1.818,2.288,3.684,4.055,5.589
			c-0.773-0.182-1.551-0.305-2.325-0.337c-0.204-0.59-0.588-1.162-1.193-1.59c-1.268-0.925-3.445-0.78-4.847,0.621
			c-0.483,0.455-0.821,1.045-1.015,1.701c-1.74,0.434-3.541,1.113-5.304,2.115c-0.788,0.439-1.564,0.945-2.318,1.513
			C128.359,45.787,128.723,43.331,130.018,41.042z M128.707,49.56c0.355,1.698,1.007,3.248,1.791,4.492
			c1.342,2.156,3.031,3.605,4.604,4.561c-0.203,0.205-0.394,0.406-0.572,0.605c-0.086,0.014-0.172,0.026-0.26,0.042
			c-1.721,0.335-3.241,1.271-4.295,2.521c-2.108,2.496-2.31,6.217-0.471,8.387c0.156,0.196,0.324,0.379,0.501,0.55
			c-1.587-0.12-3.173-1.153-4.517-2.409c-2.773-2.609-4.039-7.322-2.266-11.37C124.51,53.992,126.469,51.484,128.707,49.56z
			 M144.471,69.201c-0.17,3.771-2.449,7.522-5.994,9.405c-3.537,1.95-7.851,1.628-11.291,0.128c-3.486-1.52-6.174-4.363-7.562-7.563
			c-1.45-3.207-1.475-6.696-0.858-9.748c0.637-3.066,1.98-5.744,3.63-7.838c1.465-1.871,3.106-3.273,4.729-4.317
			c-2.099,1.895-3.927,4.3-5.163,7.134c-2.022,4.609-0.457,9.949,2.729,12.744c1.566,1.372,3.404,2.492,5.409,2.518
			c0.358,0.004,0.709-0.027,1.05-0.086c1.652,0.953,3.645,1.027,5.049,0.225c1.967-1.09,2.605-3.25,2.264-4.715
			c-0.359-1.529-1.494-2.273-2.216-2.522c-0.755-0.269-1.192-0.188-1.187-0.211c-0.008,0.022,0.434-0.046,1.177,0.238
			c0.711,0.263,1.807,1.028,2.12,2.517c0.303,1.43-0.368,3.504-2.26,4.501c-1.259,0.692-3.002,0.642-4.492-0.13
			c1.318-0.334,2.438-1.099,3.164-2.037c1.05-1.196,1.374-2.988,0.599-4.105c-0.657-1.088-1.967-1.678-2.805-1.113
			c-0.394,0.237-0.634,0.594-0.681,0.951c-0.032,0.361,0.178,0.635,0.378,0.743c0.411,0.198,0.567-0.094,0.595-0.151
			c-0.031,0.052-0.211,0.316-0.563,0.102c-0.444-0.214-0.404-1.105,0.374-1.458c0.729-0.435,1.795,0.157,2.323,1.14
			c0.578,1.022,0.256,2.391-0.746,3.453c-0.861,0.994-2.235,1.697-3.739,1.729c-0.264-0.23-0.51-0.488-0.731-0.775
			c-1.695-2.056-1.447-5.551,0.559-7.871c0.922-1.066,2.206-1.873,3.652-2.225c-1.581,1.962-1.242,3.553-1.227,3.49
			c-0.017,0.062-0.348-1.539,1.258-3.498c0.117-0.027,0.232-0.053,0.351-0.075c1.599-0.275,3.347,0,4.913,0.697
			C142.451,61.862,144.757,65.419,144.471,69.201z M147.168,57.517c-1.479,1.754-3.543,2.586-5.271,2.725
			c-0.686,0.05-1.307,0.022-1.862-0.051c-0.169-0.087-0.342-0.17-0.517-0.243c-0.687-0.298-1.398-0.517-2.117-0.653
			c-0.568-0.311-1.152-0.709-1.713-1.205c1.41-1.296,3.291-2.668,5.578-4.008c0.426,0.359,0.938,0.576,1.466,0.568
			c0.978-0.005,1.771-0.643,1.995-1.373c0.096-0.345,0.065-0.673-0.037-0.952c0.996-0.428,2.051-0.828,3.16-1.195
			C149.098,53.24,148.652,55.961,147.168,57.517z M148.474,50.835c-0.081-0.139-0.167-0.277-0.262-0.412
			c-0.462-0.673-1.067-1.271-1.769-1.687c0.612-0.703,1.079-1.541,1.361-2.453c0.049,0.045,0.091,0.09,0.14,0.135
			c1.601,1.477,2.894,2.462,3.878,3.016c0.241,0.125,0.482,0.218,0.723,0.325C151.129,50.07,149.763,50.427,148.474,50.835z
			 M153.195,48.143c0.716,0.348,1.435,0.706,2.161,1.076c-0.109,0.018-0.213,0.04-0.321,0.058
			C154.433,48.94,153.822,48.571,153.195,48.143z M156.441,49.986c-0.412-0.185-0.831-0.394-1.256-0.626
			c0.112-0.018,0.22-0.041,0.333-0.058c0.359,0.185,0.721,0.369,1.084,0.557C156.545,49.9,156.497,49.943,156.441,49.986z
			 M157.66,48.898l-0.082-0.041c0.216-0.02,0.352-0.041,0.391-0.035c-0.047-0.014-0.236-0.012-0.533-0.037
			c-1.669-0.842-3.317-1.666-4.971-2.401c-0.991-1.044-1.83-2.506-2.068-4.247c-0.086-0.439-0.099-0.894-0.064-1.348
			c2.073-0.405,4.329-1.834,6.75-4.284c0.556,0.338,1.019,0.811,1.304,1.366c0.443,0.871,0.498,1.854,0.115,2.585
			c-0.377,0.753-1.137,1.212-1.871,1.31c-1.533,0.224-2.353-1.52-1.891-2.263c0.373-0.744,0.994-0.769,1.09-0.789
			c-0.098,0.005-0.727-0.091-1.277,0.686c-0.287,0.432-0.344,1.145,0,1.809c0.309,0.67,1.129,1.285,2.127,1.24
			c0.941-0.023,2.023-0.526,2.635-1.528c0.633-1.014,0.639-2.39,0.117-3.543c-0.304-0.693-0.812-1.326-1.458-1.808
			c0.531-0.582,1.069-1.208,1.616-1.885c1.908-2.277,3.693-4.678,5.602-7.324l2.093-2.832c0.8,0.492,1.724,0.862,2.647,1.108
			l0.184,0.185h0.063c0.738,0.923,1.046,1.785,0.984,2.646c-0.063,0.801-0.615,2.524-1.785,5.232
			c-0.924,2.154-1.23,4.124-0.984,6.032c0.246,1.97,1.354,3.631,3.323,4.924c0.474,0.298,0.979,0.558,1.501,0.796
			c-3.286-0.013-6.367,0.55-9.114,1.478c-0.788,0.192-1.651,0.47-2.575,0.868c-0.834,0.369-1.702,0.859-2.555,1.475
			c-0.319,0.189-0.629,0.383-0.931,0.581C157.914,48.868,157.787,48.883,157.66,48.898z M184.233,57.125
			c-6.183-0.114-12.839-1.957-19.398-4.825c-2.046-0.85-4.017-1.815-5.95-2.785c0.271-0.249,0.545-0.481,0.822-0.701
			c6.08-0.473,12.795,0.01,19.588,1.869c2.086,0.534,4.118,1.141,6.103,1.777c-1.931,0.059-3.795,0.12-5.579,0.131
			c-3.979,0.051-7.557-0.178-10.525-0.646c-5.954-0.967-9.316-2.789-9.326-2.717c0.01-0.073,3.29,1.907,9.268,3.055
			c2.977,0.556,6.586,0.872,10.584,0.886c2.361,0.023,4.855-0.046,7.446-0.101c2.694,0.896,5.301,1.819,7.835,2.66
			C191.862,56.685,188.178,57.24,184.233,57.125z M195.304,55.667c-2.472-0.821-5.016-1.725-7.644-2.605
			c1.674-0.035,3.387-0.061,5.129-0.048c2.344,0.016,4.631,0.13,6.818,0.375c0.253,0.086,0.507,0.173,0.762,0.257
			c-0.082,0.041-0.162,0.082-0.246,0.125C198.672,54.492,197.056,55.138,195.304,55.667z M198.719,56.752
			c-0.688-0.205-1.379-0.423-2.075-0.646c1.367-0.516,2.639-1.1,3.799-1.729c0.27-0.147,0.532-0.298,0.789-0.45
			c1.597,0.51,3.198,0.958,4.817,1.273c1.092,0.226,2.183,0.402,3.27,0.528c0.532,0.21,1.051,0.429,1.552,0.656
			c-1.382-0.376-2.755-0.526-3.989-0.487c-2.378,0.063-4.377,0.699-5.951,1.496C200.199,57.197,199.461,56.983,198.719,56.752z
			 M212.504,57.188c0.947,0.501,1.82,1.028,2.607,1.57c0.08,0.056,0.156,0.111,0.234,0.167c-0.09,0.009-0.176,0.018-0.266,0.026
			c-4.096,0.376-8.906-0.162-14.006-1.521c1.557-0.746,3.51-1.328,5.81-1.361C208.611,56.033,210.604,56.374,212.504,57.188z
			 M219.68,44.394c0.91-0.482,2.148-0.419,3.195,0.07c1.047,0.498,1.928,1.488,2.225,2.71c0.231,1.004,0.108,2.168-0.365,3.177
			c-1.037-0.385-2.116-0.928-3.237-1.628c0.428-0.551,0.482-1.268,0.183-1.724c-0.318-0.496-0.877-0.605-1.238-0.514
			c-0.659,0.256-0.61,0.746-0.602,0.852c-0.002-0.104-0.017-0.591,0.615-0.794c0.343-0.069,0.857,0.063,1.116,0.522
			c0.252,0.418,0.165,1.082-0.248,1.546c-1.006-0.641-2.044-1.396-3.118-2.282C218.388,45.548,218.892,44.796,219.68,44.394z
			 M215.344,46.419c1.602,1.477,2.894,2.462,3.879,3.016c1.785,0.924,3.569,1.354,5.293,1.293c0.01-0.001,0.017-0.001,0.026-0.002
			c-0.04,0.068-0.064,0.145-0.108,0.211c-1.563,2.299-4.732,3.342-7.932,3.631c-3.24,0.372-6.7,0.105-10.184-0.65
			c-1.201-0.246-2.403-0.571-3.611-0.941c2.934-2.042,4.872-4.363,5.956-6.205c1.374-2.285,1.754-3.726,1.792-3.705
			c-0.036-0.021-0.504,1.396-1.972,3.588c-1.214,1.852-3.35,4.155-6.512,6.092c-2.055-0.658-4.13-1.434-6.259-2.176
			c-3.652-1.248-7.03-2.68-10.523-3.916c-1.059-0.357-2.119-0.662-3.178-0.94c2.11-0.144,4.602-0.473,7.494-1.011l11.757-2.524
			c3.236-0.716,6.194-1.252,8.897-1.634C211.447,42.458,213.168,44.417,215.344,46.419z M58.425,24.568
			c0-0.431-0.123-0.8-0.308-1.169c-0.431-0.677-1.293-0.985-2.462-0.985c-2.955,0-5.786,1.477-8.556,4.37
			c-2.708,2.893-4.063,5.848-4.063,8.802c0,1.046,0.185,1.847,0.616,2.524c0.062,0.185,0.615,0.923,1.539,2.093
			c0.062,0,0.124-0.062,0.062-0.123c-0.062-0.185-0.062-0.37-0.062-0.554c0-0.246,0.062-0.492,0.124-0.738
			c0.246-0.308,0.554-0.554,0.861-0.677c1.046-0.37,2.154-0.739,3.386-1.108c3.385-0.985,5.847-2.77,7.386-5.417
			c0.431-0.8,0.431-1.292,0-1.6c-0.184-0.123-0.615-0.123-1.292,0v0.062c0.923,0.062,1.354,0.369,1.169,0.8
			c-0.8,2.277-3.139,4.063-6.955,5.293l-3.816,0.985c-0.677-1.046-0.738-2.401-0.246-4.124c0.308-1.17,0.984-2.339,1.97-3.509
			c-0.8,1.17-1.231,2.277-1.231,3.447c0,1.169,0.492,1.724,1.539,1.724c0.862,0,2.093-0.493,3.631-1.478h-0.062
			c0.677-0.431,1.416-0.985,2.093-1.662C56.887,28.63,58.425,26.292,58.425,24.568z M48.823,33.124
			c-0.246,0.123-0.493,0.185-0.739,0.185c-0.554,0-0.862-0.308-0.862-0.862c0.062-0.677,0.369-1.539,1.046-2.585
			c1.354-2.031,7.079-6.833,8.31-6.586c0.431,0.062,0.616,0.308,0.616,0.739c0,0.923-1.354,2.77-4.001,5.602
			C51.593,31.277,50.116,32.446,48.823,33.124z M103.995,20.013l-0.493-0.739c-0.246-0.369-0.492-0.554-0.8-0.554
			c-0.185,0-0.308,0.123-0.431,0.308c-0.431,0.8-2.585,1.969-6.463,3.631C98.578,22.721,101.286,21.859,103.995,20.013z
			 M115.998,29.738l-5.848,7.632c-0.185,0.185-0.246,0.369-0.246,0.554c0,0.431,0.185,0.615,0.615,0.615
			c0.185,0,0.308-0.062,0.493-0.185c3.262-1.354,5.355-2.216,6.278-2.647c1.6-0.677,3.201-1.662,4.801-2.893
			c2.832-2.154,5.355-4.555,7.51-7.14c2.031-2.401,3.076-4.432,3.076-6.032c0-1.847-1.045-2.77-3.076-2.77
			c-1.108,0-3.078,0.431-5.91,1.293v0.123c1.908-0.185,3.141-0.247,3.57-0.247c2.217,0,3.263,0.739,3.14,2.216
			c-0.308,4.125-3.569,8.31-9.726,12.68c-1.846,1.292-4.124,2.339-6.771,3.139l1.108-1.416l3.694-4.617
			c1.908-2.462,2.893-4.063,2.893-4.863c0-0.554-0.492-1.477-1.478-2.708c-0.062,0-0.062,0,0,0.062
			c0.185,0.862-0.492,2.339-2.093,4.493C117.229,28.138,116.552,29.061,115.998,29.738z M179.562,37.063
			c4.001-1.662,7.017-3.939,9.11-6.894c1.416-1.97,2.092-3.754,2.092-5.355c0-1.539-0.861-2.339-2.646-2.339
			c-1.908,0-3.939,0.862-6.217,2.523c-1.785,1.293-3.2,2.893-4.369,4.678c-1.354,2.092-2.032,4.124-2.032,6.032
			c0,1.231,0.247,2.155,0.739,2.77c0.738,0.923,1.23,1.477,1.416,1.785c0.061,0,0.123,0,0.061-0.062
			c-0.061-0.308-0.123-0.554-0.123-0.862C177.592,38.355,178.27,37.617,179.562,37.063z M184.979,24.999
			c1.539-1.108,2.709-1.662,3.631-1.662c0.985,0,1.479,0.554,1.479,1.6c0,0.677-0.186,1.416-0.493,2.216
			c-0.062-0.308-0.985,2.154-2.093,3.324c-1.785,1.478-3.201,2.216-4.37,2.216c-0.431,0-0.739-0.123-0.985-0.37
			c-0.369-0.431-0.553-0.985-0.553-1.6C181.594,29.061,182.701,27.153,184.979,24.999z M180.115,29.984
			c-0.061,0.308-0.123,0.554-0.123,0.8c0,1.539,0.738,2.339,2.277,2.523c1.293,0.123,2.832-0.431,4.555-1.662
			c-1.784,1.908-4.308,3.57-7.632,4.986l-0.739,0.37c-0.369-0.554-0.553-1.108-0.553-1.785
			C177.9,33.739,178.639,32.016,180.115,29.984z M189.841,38.54c0.739,0.923,1.231,1.477,1.415,1.785c0.063,0,0.063,0,0-0.062
			c-0.123-0.554-0.061-1.108,0.186-1.662c0.246-0.246,0.492-0.431,0.738-0.492c1.047-0.37,2.154-0.739,3.386-1.108
			c3.385-1.046,5.909-2.832,7.448-5.417c0.43-0.8,0.43-1.292-0.063-1.6c-0.185-0.123-0.615-0.123-1.292,0v0.062
			c0.923,0.062,1.354,0.369,1.169,0.8c-0.185,0.492-0.492,1.046-1.046,1.6c-1.785,1.908-3.816,3.201-6.155,3.816
			c-1.416,0.369-2.646,0.616-3.693,0.739c-0.246-0.431-0.369-0.985-0.369-1.601c0-3.016,1.969-6.155,5.971-9.541
			c1.908-1.662,3.508-2.462,4.801-2.462c0.678,0,1.047,0.308,0.984,0.985c-0.061,0.492-0.369,1.108-1.046,1.846l-1.046,1.17
			c-0.063,0.185,0.061,0.308,0.307,0.308c1.479,0,2.894-1.539,2.894-3.016c0-1.416-0.923-2.154-2.708-2.154
			c-2.955,0-5.786,1.477-8.557,4.37c-2.708,2.893-4.063,5.848-4.063,8.863C189.102,37.001,189.349,37.925,189.841,38.54z"/>
	</g>
</g>
</svg>
